Activities
…
Activities

Read in the data sets and store the data frames as bird_observations, sites, surveys, and taxalist (it should be clear from the raw file names which is which)

Create a subset of bird_observations called birds_subset that only contains observations for birds with species id “BHCO” and “RWBL”, and from sites with site ID “LI-W” and “NU-C”

birds_subset <- bird_observations |> 
  filter(species_id %in% c("BHCO", "RWBL")) |> 
  filter(site_id %in% c("LI-W","NU-C"))

birds_subset

# A tibble: 23 × 9
   survey_id site_id species_id distance bird_count notes  seen heard direction
       <dbl> <chr>   <chr>      <chr>         <dbl> <chr> <dbl> <dbl> <chr>    
 1       153 NU-C    BHCO       20-40             8 <NA>      1     0 N        
 2       412 LI-W    RWBL       >40               1 <NA>      0     1 N        
 3       412 LI-W    RWBL       FT                1 <NA>      0     1 SE       
 4       412 LI-W    BHCO       FT                4 <NA>      1     0 NE       
 5       711 LI-W    RWBL       5-10              1 <NA>      1     0 S        
 6       711 LI-W    RWBL       FT                4 <NA>      1     0 S        
 7       711 LI-W    RWBL       >40              10 <NA>      1     1 N        
 8       711 LI-W    RWBL       10-20             3 <NA>      1     1 S        
 9       770 NU-C    BHCO       >40               1 <NA>      1     0 SE       
10       770 NU-C    BHCO       FT                2 <NA>      1     0 S        
# … with 13 more rows
# ℹ Use `print(n = ...)` to see more rows

Left join practice

Use left join(s) to update birds_subset so that it also includes sites and taxalist information. For each join, include an explicit argument saying which variable you are joining by (even if it will just assume the correct one for you). Store the updated data frame as birds_left. Make sure to look at the output - is what it contains consistent with what you expected it to contain?

birds_left <- birds_subset |> 
  left_join(sites, by = "site_id") |>
  left_join(taxalist, by = 'species_id')
birds_left

# A tibble: 23 × 17
   survey_id site_id species…¹ dista…² bird_…³ notes  seen heard direc…⁴ park_…⁵
       <dbl> <chr>   <chr>     <chr>     <dbl> <chr> <dbl> <dbl> <chr>   <chr>  
 1       153 NU-C    BHCO      20-40         8 <NA>      1     0 N       NU     
 2       412 LI-W    RWBL      >40           1 <NA>      0     1 N       LI     
 3       412 LI-W    RWBL      FT            1 <NA>      0     1 SE      LI     
 4       412 LI-W    BHCO      FT            4 <NA>      1     0 NE      LI     
 5       711 LI-W    RWBL      5-10          1 <NA>      1     0 S       LI     
 6       711 LI-W    RWBL      FT            4 <NA>      1     0 S       LI     
 7       711 LI-W    RWBL      >40          10 <NA>      1     1 N       LI     
 8       711 LI-W    RWBL      10-20         3 <NA>      1     1 S       LI     
 9       770 NU-C    BHCO      >40           1 <NA>      1     0 SE      NU     
10       770 NU-C    BHCO      FT            2 <NA>      1     0 S       NU     
# … with 13 more rows, 7 more variables: park_district <chr>, park_name <chr>,
#   point_code <chr>, point_location <lgl>, park_acreage <lgl>,
#   common_name <chr>, asu_itis <dbl>, and abbreviated variable names
#   ¹​species_id, ²​distance, ³​bird_count, ⁴​direction, ⁵​park_code
# ℹ Use `print(n = ...)` to see more rows, and `colnames()` to see all variable names
…
names(sites)

[1] "site_id"        "park_code"      "park_district"  "park_name"     
[5] "point_code"     "point_location" "park_acreage"  

# "survey_id"  "site_id"    "species_id" "distance"   "bird_count" "notes"     
# "seen"       "heard"      "direction" 
#      "park_code"      "park_district"  "park_name"     
# "point_code"     "point_location" "park_acreage" "

birds_full <- birds_subset |> 
  full_join(sites, by = 'site_id')
birds_full

# A tibble: 242 × 15
   survey_id site_id species…¹ dista…² bird_…³ notes  seen heard direc…⁴ park_…⁵
       <dbl> <chr>   <chr>     <chr>     <dbl> <chr> <dbl> <dbl> <chr>   <chr>  
 1       153 NU-C    BHCO      20-40         8 <NA>      1     0 N       NU     
 2       412 LI-W    RWBL      >40           1 <NA>      0     1 N       LI     
 3       412 LI-W    RWBL      FT            1 <NA>      0     1 SE      LI     
 4       412 LI-W    BHCO      FT            4 <NA>      1     0 NE      LI     
 5       711 LI-W    RWBL      5-10          1 <NA>      1     0 S       LI     
 6       711 LI-W    RWBL      FT            4 <NA>      1     0 S       LI     
 7       711 LI-W    RWBL      >40          10 <NA>      1     1 N       LI     
 8       711 LI-W    RWBL      10-20         3 <NA>      1     1 S       LI     
 9       770 NU-C    BHCO      >40           1 <NA>      1     0 SE      NU     
10       770 NU-C    BHCO      FT            2 <NA>      1     0 S       NU     
# … with 232 more rows, 5 more variables: park_district <chr>, park_name <chr>,
#   point_code <chr>, point_location <lgl>, park_acreage <lgl>, and abbreviated
#   variable names ¹​species_id, ²​distance, ³​bird_count, ⁴​direction, ⁵​park_code
# ℹ Use `print(n = ...)` to see more rows, and `colnames()` to see all variable names
…
[1] "survey_id"  "site_id"    "species_id" "distance"   "bird_count"
[6] "notes"      "seen"       "heard"      "direction" 

names(taxalist) # key match 

[1] "species_id"  "common_name" "asu_itis"   

birds_inner <- birds_subset |> 
  inner_join(taxalist, by = "species_id")

birds_left2 <- birds_subset |> 
  left_join(taxalist, by = "species_id")
birds_inner

# A tibble: 23 × 11
   survey_id site_id species…¹ dista…² bird_…³ notes  seen heard direc…⁴ commo…⁵
       <dbl> <chr>   <chr>     <chr>     <dbl> <chr> <dbl> <dbl> <chr>   <chr>  
 1       153 NU-C    BHCO      20-40         8 <NA>      1     0 N       Brown-…
 2       412 LI-W    RWBL      >40           1 <NA>      0     1 N       Red-wi…
 3       412 LI-W    RWBL      FT            1 <NA>      0     1 SE      Red-wi…
 4       412 LI-W    BHCO      FT            4 <NA>      1     0 NE      Brown-…
 5       711 LI-W    RWBL      5-10          1 <NA>      1     0 S       Red-wi…
 6       711 LI-W    RWBL      FT            4 <NA>      1     0 S       Red-wi…
 7       711 LI-W    RWBL      >40          10 <NA>      1     1 N       Red-wi…
 8       711 LI-W    RWBL      10-20         3 <NA>      1     1 S       Red-wi…
 9       770 NU-C    BHCO      >40           1 <NA>      1     0 SE      Brown-…
10       770 NU-C    BHCO      FT            2 <NA>      1     0 S       Brown-…
# … with 13 more rows, 1 more variable: asu_itis <dbl>, and abbreviated
#   variable names ¹​species_id, ²​distance, ³​bird_count, ⁴​direction,
#   ⁵​common_name
# ℹ Use `print(n = ...)` to see more rows, and `colnames()` to see all variable names

birds_left2

# A tibble: 23 × 11
   survey_id site_id species…¹ dista…² bird_…³ notes  seen heard direc…⁴ commo…⁵
       <dbl> <chr>   <chr>     <chr>     <dbl> <chr> <dbl> <dbl> <chr>   <chr>  
 1       153 NU-C    BHCO      20-40         8 <NA>      1     0 N       Brown-…
 2       412 LI-W    RWBL      >40           1 <NA>      0     1 N       Red-wi…
 3       412 LI-W    RWBL      FT            1 <NA>      0     1 SE      Red-wi…
 4       412 LI-W    BHCO      FT            4 <NA>      1     0 NE      Brown-…
 5       711 LI-W    RWBL      5-10          1 <NA>      1     0 S       Red-wi…
 6       711 LI-W    RWBL      FT            4 <NA>      1     0 S       Red-wi…
 7       711 LI-W    RWBL      >40          10 <NA>      1     1 N       Red-wi…
 8       711 LI-W    RWBL      10-20         3 <NA>      1     1 S       Red-wi…
 9       770 NU-C    BHCO      >40           1 <NA>      1     0 SE      Brown-…
10       770 NU-C    BHCO      FT            2 <NA>      1     0 S       Brown-…
# … with 13 more rows, 1 more variable: asu_itis <dbl>, and abbreviated
#   variable names ¹​species_id, ²​distance, ³​bird_count, ⁴​direction,
#   ⁵​common_name
# ℹ Use `print(n = ...)` to see more rows, and `colnames()` to see all variable names

Task 2:

Starting with your birds object, rename the notes column to bird_obs_notes (so this doesn’t conflict with notes in the surveys dataset

Then, create a subset that contains all observations in the birds dataset, joins the taxonomic, site and survey information to it, and is finally limited to only columns survey_date, common_name, park_name, and bird_count. You can decide the order that you want to create this in (e.g. limit the columns first, then join, or the other way around).

Use lubridate::month() to add a new column called survey_month, containing only the month number. Then, convert the month number to a factor (again within mutate())

birds_subset <- bird_observations |>
  rename(birds_obs_notes = notes)
birds_subset

# A tibble: 40,425 × 9
   survey_id site_id species_id distance bird_count birds_…¹  seen heard direc…²
       <dbl> <chr>   <chr>      <chr>         <dbl> <chr>    <dbl> <dbl> <chr>  
 1       144 LI-S    HOSP       5-10              4 <NA>         1     1 NE     
 2       145 LI-W    HOSP       20-40            10 <NA>         0     1 E      
 3       145 LI-W    AUWA       20-40             2 <NA>         0     1 SE     
 4       145 LI-W    RODO       FT                2 <NA>         1     0 E      
 5       145 LI-W    GTGR       >40               2 <NA>         0     1 NE     
 6       145 LI-W    WCSP       20-40             3 <NA>         0     1 N      
 7       145 LI-W    WCSP       20-40             3 <NA>         0     1 E      
 8       145 LI-W    GTGR       FT                2 <NA>         1     1 E      
 9       145 LI-W    RODO       FT                2 <NA>         1     0 S      
10       145 LI-W    MODO       FT                3 <NA>         1     0 E      
# … with 40,415 more rows, and abbreviated variable names ¹​birds_obs_notes,
#   ²​direction
# ℹ Use `print(n = ...)` to see more rows
birds_all <- birds_subset |> 
  left_join(surveys) |> 
  left_join(sites) |> 
  left_join(taxalist) |> 
  select(survey_date, common_name, park_name, bird_count) |> 
  mutate(survey_month = lubridate::month(survey_date)) |> 
  mutate(survey_month = as.factor(survey_month))

Joining, by = c("survey_id", "site_id")
Joining, by = "site_id"
Joining, by = "species_id"

birds_all

# A tibble: 40,425 × 5
   survey_date         common_name           park_name bird_count survey_month
   <dttm>              <chr>                 <chr>          <dbl> <fct>       
 1 2000-12-21 00:00:00 House Sparrow         Lindo              4 12          
 2 2000-12-21 00:00:00 House Sparrow         Lindo             10 12          
 3 2000-12-21 00:00:00 Audubon's Warbler     Lindo              2 12          
 4 2000-12-21 00:00:00 Rock Dove             Lindo              2 12          
 5 2000-12-21 00:00:00 Great-tailed Grackle  Lindo              2 12          
 6 2000-12-21 00:00:00 White-crowned Sparrow Lindo              3 12          
 7 2000-12-21 00:00:00 White-crowned Sparrow Lindo              3 12          
 8 2000-12-21 00:00:00 Great-tailed Grackle  Lindo              2 12          
 9 2000-12-21 00:00:00 Rock Dove             Lindo              2 12          
10 2000-12-21 00:00:00 Mourning Dove         Lindo              3 12          
# … with 40,415 more rows
# ℹ Use `print(n = ...)` to see more rows
…
`summarise()` has grouped output by 'park_name'. You can override using the
`.groups` argument.

unique(birds_count$park_name)

[1] "Lindo"    "Orme"     "Palomino" "Sonrisa" 

names(birds_count)

[1] "park_name"    "survey_month" "total_birds" 

birds_count

# A tibble: 23 × 3
# Groups:   park_name [4]
   park_name survey_month total_birds
   <chr>     <fct>              <dbl>
 1 Lindo     1                    394
 2 Lindo     3                   2316
 3 Lindo     6                   2187
 4 Lindo     9                   4688
 5 Lindo     10                   529
 6 Lindo     12                  1948
 7 Orme      1                    439
 8 Orme      3                   1928
 9 Orme      6                   2355
10 Orme      9                   1304
# … with 13 more rows
# ℹ Use `print(n = ...)` to see more rows
######################################################################
birds_df <- bird_observations %>% 
  select(-notes) %>% 
  left_join(surveys) %>% 
  left_join(sites) %>% 
  left_join(taxalist) %>% 
  select(survey_date, park_name, common_name, bird_count)

Joining, by = c("survey_id", "site_id")
Joining, by = "site_id"
Joining, by = "species_id"

birds_df

# A tibble: 40,425 × 4
   survey_date         park_name common_name           bird_count
   <dttm>              <chr>     <chr>                      <dbl>
 1 2000-12-21 00:00:00 Lindo     House Sparrow                  4
 2 2000-12-21 00:00:00 Lindo     House Sparrow                 10
 3 2000-12-21 00:00:00 Lindo     Audubon's Warbler              2
 4 2000-12-21 00:00:00 Lindo     Rock Dove                      2
 5 2000-12-21 00:00:00 Lindo     Great-tailed Grackle           2
 6 2000-12-21 00:00:00 Lindo     White-crowned Sparrow          3
 7 2000-12-21 00:00:00 Lindo     White-crowned Sparrow          3
 8 2000-12-21 00:00:00 Lindo     Great-tailed Grackle           2
 9 2000-12-21 00:00:00 Lindo     Rock Dove                      2
10 2000-12-21 00:00:00 Lindo     Mourning Dove                  3
# … with 40,415 more rows
# ℹ Use `print(n = ...)` to see more rows

birds_df <- birds_df %>% 
  mutate(survey_month = lubridate::month(survey_date)) %>% 
  mutate(survey_month = as.factor(survey_month)) %>% 
  relocate(survey_month, .after = survey_date)
birds_df

# A tibble: 40,425 × 5
   survey_date         survey_month park_name common_name           bird_count
   <dttm>              <fct>        <chr>     <chr>                      <dbl>
 1 2000-12-21 00:00:00 12           Lindo     House Sparrow                  4
 2 2000-12-21 00:00:00 12           Lindo     House Sparrow                 10
 3 2000-12-21 00:00:00 12           Lindo     Audubon's Warbler              2
 4 2000-12-21 00:00:00 12           Lindo     Rock Dove                      2
 5 2000-12-21 00:00:00 12           Lindo     Great-tailed Grackle           2
 6 2000-12-21 00:00:00 12           Lindo     White-crowned Sparrow          3
 7 2000-12-21 00:00:00 12           Lindo     White-crowned Sparrow          3
 8 2000-12-21 00:00:00 12           Lindo     Great-tailed Grackle           2
 9 2000-12-21 00:00:00 12           Lindo     Rock Dove                      2
10 2000-12-21 00:00:00 12           Lindo     Mourning Dove                  3
# … with 40,415 more rows
# ℹ Use `print(n = ...)` to see more rows

birds_park_month <- birds_df %>% 
  group_by(park_name, survey_month) %>% 
  summarize(total_birds = sum(bird_count, na.rm = TRUE)) %>% 
  ungroup() %>% 
  filter(park_name %in% c("Lindo", "Orme", "Palomino", "Sonrisa"))

`summarise()` has grouped output by 'park_name'. You can override using the
`.groups` argument.

birds_park_month

# A tibble: 23 × 3
   park_name survey_month total_birds
   <chr>     <fct>              <dbl>
 1 Lindo     1                    394
 2 Lindo     3                   2316
 3 Lindo     6                   2187
 4 Lindo     9                   4688
 5 Lindo     10                   529
 6 Lindo     12                  1948
 7 Orme      1                    439
 8 Orme      3                   1928
 9 Orme      6                   2355
10 Orme      9                   1304
# … with 13 more rows
# ℹ Use `print(n = ...)` to see more rows

birds_count

# A tibble: 23 × 3
# Groups:   park_name [4]
   park_name survey_month total_birds
   <chr>     <fct>              <dbl>
 1 Lindo     1                    394
 2 Lindo     3                   2316
 3 Lindo     6                   2187
 4 Lindo     9                   4688
 5 Lindo     10                   529
 6 Lindo     12                  1948
 7 Orme      1                    439
 8 Orme      3                   1928
 9 Orme      6                   2355
10 Orme      9                   1304
# … with 13 more rows
# ℹ Use `print(n = ...)` to see more rows
…
